[
  {
    "display_name": "Text Files",
    "category": ".DOC",
    "description": "Microsoft Word Document"
  },
  {
    "display_name": "Text Files",
    "category": ".DOCX",
    "description": "Microsoft Word Open XML Document"
  },
  {
    "display_name": "Text Files",
    "category": ".LOG",
    "description": "Log File"
  },
  {
    "display_name": "Text Files",
    "category": ".MSG",
    "description": "Outlook Mail Message"
  },
  {
    "display_name": "Text Files",
    "category": ".ODT",
    "description": "OpenDocument Text Document"
  },
  {
    "display_name": "Text Files",
    "category": ".PAGES",
    "description": "Pages Document"
  },
  {
    "display_name": "Text Files",
    "category": ".RTF",
    "description": "Rich Text Format File"
  },
  {
    "display_name": "Text Files",
    "category": ".TEX",
    "description": "LaTeX Source Document"
  },
  {
    "display_name": "Text Files",
    "category": ".TXT",
    "description": "Plain Text File"
  },
  {
    "display_name": "Text Files",
    "category": ".WPD",
    "description": "WordPerfect Document"
  },
  {
    "display_name": "Text Files",
    "category": ".WPS",
    "description": "Microsoft Works Word Processor Document"
  },
  {
    "display_name": "Data Files",
    "category": ".CSV",
    "description": "Comma Separated Values File"
  },
  {
    "display_name": "Data Files",
    "category": ".DAT",
    "description": "Data File"
  },
  {
    "display_name": "Data Files",
    "category": ".GED",
    "description": "GEDCOM Genealogy Data File"
  },
  {
    "display_name": "Data Files",
    "category": ".KEY",
    "description": "Keynote Presentation"
  },
  {
    "display_name": "Data Files",
    "category": ".KEYCHAIN",
    "description": "Mac OS X Keychain File"
  },
  {
    "display_name": "Data Files",
    "category": ".PPS",
    "description": "PowerPoint Slide Show"
  },
  {
    "display_name": "Data Files",
    "category": ".PPT",
    "description": "PowerPoint Presentation"
  },
  {
    "display_name": "Data Files",
    "category": ".PPTX",
    "description": "PowerPoint Open XML Presentation"
  },
  {
    "display_name": "Data Files",
    "category": ".SDF",
    "description": "Standard Data File"
  },
  {
    "display_name": "Data Files",
    "category": ".TAR",
    "description": "Consolidated Unix File Archive"
  },
  {
    "display_name": "Data Files",
    "category": ".TAX2014",
    "description": "TurboTax 2014 Tax Return"
  },
  {
    "display_name": "Data Files",
    "category": ".TAX2015",
    "description": "TurboTax 2015 Tax Return"
  },
  {
    "display_name": "Data Files",
    "category": ".VCF",
    "description": "vCard File"
  },
  {
    "display_name": "Data Files",
    "category": ".XML",
    "description": "XML File"
  },
  {
    "display_name": "Audio Files",
    "category": ".AIF",
    "description": "Audio Interchange File Format"
  },
  {
    "display_name": "Audio Files",
    "category": ".IFF",
    "description": "Interchange File Format"
  },
  {
    "display_name": "Audio Files",
    "category": ".M3U",
    "description": "Media Playlist File"
  },
  {
    "display_name": "Audio Files",
    "category": ".M4A",
    "description": "MPEG-4 Audio File"
  },
  {
    "display_name": "Audio Files",
    "category": ".MID",
    "description": "MIDI File"
  },
  {
    "display_name": "Audio Files",
    "category": ".MP3",
    "description": "MP3 Audio File"
  },
  {
    "display_name": "Audio Files",
    "category": ".MPA",
    "description": "MPEG-2 Audio File"
  },
  {
    "display_name": "Audio Files",
    "category": ".WAV",
    "description": "WAVE Audio File"
  },
  {
    "display_name": "Audio Files",
    "category": ".WMA",
    "description": "Windows Media Audio File"
  },
  {
    "display_name": "Video Files",
    "category": ".3G2",
    "description": "3GPP2 Multimedia File"
  },
  {
    "display_name": "Video Files",
    "category": ".3GP",
    "description": "3GPP Multimedia File"
  },
  {
    "display_name": "Video Files",
    "category": ".ASF",
    "description": "Advanced Systems Format File"
  },
  {
    "display_name": "Video Files",
    "category": ".AVI",
    "description": "Audio Video Interleave File"
  },
  {
    "display_name": "Video Files",
    "category": ".FLV",
    "description": "Flash Video File"
  },
  {
    "display_name": "Video Files",
    "category": ".M4V",
    "description": "iTunes Video File"
  },
  {
    "display_name": "Video Files",
    "category": ".MOV",
    "description": "Apple QuickTime Movie"
  },
  {
    "display_name": "Video Files",
    "category": ".MP4",
    "description": "MPEG-4 Video File"
  },
  {
    "display_name": "Video Files",
    "category": ".MPG",
    "description": "MPEG Video File"
  },
  {
    "display_name": "Video Files",
    "category": ".RM",
    "description": "Real Media File"
  },
  {
    "display_name": "Video Files",
    "category": ".SRT",
    "description": "SubRip Subtitle File"
  },
  {
    "display_name": "Video Files",
    "category": ".SWF",
    "description": "Shockwave Flash Movie"
  },
  {
    "display_name": "Video Files",
    "category": ".VOB",
    "description": "DVD Video Object File"
  },
  {
    "display_name": "Video Files",
    "category": ".WMV",
    "description": "Windows Media Video File"
  },
  {
    "display_name": "3D Image Files",
    "category": ".3DM",
    "description": "Rhino 3D Model"
  },
  {
    "display_name": "3D Image Files",
    "category": ".3DS",
    "description": "3D Studio Scene"
  },
  {
    "display_name": "3D Image Files",
    "category": ".MAX",
    "description": "3ds Max Scene File"
  },
  {
    "display_name": "3D Image Files",
    "category": ".OBJ",
    "description": "Wavefront 3D Object File"
  },
  {
    "display_name": "Raster Image Files",
    "category": ".BMP",
    "description": "Bitmap Image File"
  },
  {
    "display_name": "Raster Image Files",
    "category": ".DDS",
    "description": "DirectDraw Surface"
  },
  {
    "display_name": "Raster Image Files",
    "category": ".GIF",
    "description": "Graphical Interchange Format File"
  },
  {
    "display_name": "Raster Image Files",
    "category": ".JPG",
    "description": "JPEG Image"
  },
  {
    "display_name": "Raster Image Files",
    "category": ".PNG",
    "description": "Portable Network Graphic"
  },
  {
    "display_name": "Raster Image Files",
    "category": ".PSD",
    "description": "Adobe Photoshop Document"
  },
  {
    "display_name": "Raster Image Files",
    "category": ".PSPIMAGE",
    "description": "PaintShop Pro Image"
  },
  {
    "display_name": "Raster Image Files",
    "category": ".TGA",
    "description": "Targa Graphic"
  },
  {
    "display_name": "Raster Image Files",
    "category": ".THM",
    "description": "Thumbnail Image File"
  },
  {
    "display_name": "Raster Image Files",
    "category": ".TIF",
    "description": "Tagged Image File"
  },
  {
    "display_name": "Raster Image Files",
    "category": ".TIFF",
    "description": "Tagged Image File Format"
  },
  {
    "display_name": "Raster Image Files",
    "category": ".YUV",
    "description": "YUV Encoded Image File"
  },
  {
    "display_name": "Vector Image Files",
    "category": ".AI",
    "description": "Adobe Illustrator File"
  },
  {
    "display_name": "Vector Image Files",
    "category": ".EPS",
    "description": "Encapsulated PostScript File"
  },
  {
    "display_name": "Vector Image Files",
    "category": ".PS",
    "description": "PostScript File"
  },
  {
    "display_name": "Vector Image Files",
    "category": ".SVG",
    "description": "Scalable Vector Graphics File"
  },
  {
    "display_name": "Page Layout Files",
    "category": ".INDD",
    "description": "Adobe InDesign Document"
  },
  {
    "display_name": "Page Layout Files",
    "category": ".PCT",
    "description": "Picture File"
  },
  {
    "display_name": "Page Layout Files",
    "category": ".PDF",
    "description": "Portable Document Format File"
  },
  {
    "display_name": "Spreadsheet Files",
    "category": ".XLR",
    "description": "Works Spreadsheet"
  },
  {
    "display_name": "Spreadsheet Files",
    "category": ".XLS",
    "description": "Excel Spreadsheet"
  },
  {
    "display_name": "Spreadsheet Files",
    "category": ".XLSX",
    "description": "Microsoft Excel Open XML Spreadsheet"
  },
  {
    "display_name": "Database Files",
    "category": ".ACCDB",
    "description": "Access 2007 Database File"
  },
  {
    "display_name": "Database Files",
    "category": ".DB",
    "description": "Database File"
  },
  {
    "display_name": "Database Files",
    "category": ".DBF",
    "description": "Database File"
  },
  {
    "display_name": "Database Files",
    "category": ".MDB",
    "description": "Microsoft Access Database"
  },
  {
    "display_name": "Database Files",
    "category": ".PDB",
    "description": "Program Database"
  },
  {
    "display_name": "Database Files",
    "category": ".SQL",
    "description": "Structured Query Language Data File"
  },
  {
    "display_name": "Executable Files",
    "category": ".APK",
    "description": "Android Package File"
  },
  {
    "display_name": "Executable Files",
    "category": ".APP",
    "description": "Mac OS X Application"
  },
  {
    "display_name": "Executable Files",
    "category": ".BAT",
    "description": "DOS Batch File"
  },
  {
    "display_name": "Executable Files",
    "category": ".CGI",
    "description": "Common Gateway Interface Script"
  },
  {
    "display_name": "Executable Files",
    "category": ".COM",
    "description": "DOS Command File"
  },
  {
    "display_name": "Executable Files",
    "category": ".EXE",
    "description": "Windows Executable File"
  },
  {
    "display_name": "Executable Files",
    "category": ".GADGET",
    "description": "Windows Gadget"
  },
  {
    "display_name": "Executable Files",
    "category": ".JAR",
    "description": "Java Archive File"
  },
  {
    "display_name": "Executable Files",
    "category": ".WSF",
    "description": "Windows Script File"
  },
  {
    "display_name": "Game Files",
    "category": ".DEM",
    "description": "Video Game Demo File"
  },
  {
    "display_name": "Game Files",
    "category": ".GAM",
    "description": "Saved Game File"
  },
  {
    "display_name": "Game Files",
    "category": ".NES",
    "description": "Nintendo (NES) ROM File"
  },
  {
    "display_name": "Game Files",
    "category": ".ROM",
    "description": "N64 Game ROM File"
  },
  {
    "display_name": "Game Files",
    "category": ".SAV",
    "description": "Saved Game"
  },
  {
    "display_name": "CAD Files",
    "category": ".DWG",
    "description": "AutoCAD Drawing Database File"
  },
  {
    "display_name": "CAD Files",
    "category": ".DXF",
    "description": "Drawing Exchange Format File"
  },
  {
    "display_name": "GIS Files",
    "category": ".GPX",
    "description": "GPS Exchange File"
  },
  {
    "display_name": "GIS Files",
    "category": ".KML",
    "description": "Keyhole Markup Language File"
  },
  {
    "display_name": "GIS Files",
    "category": ".KMZ",
    "description": "Google Earth Placemark File"
  },
  {
    "display_name": "Web Files",
    "category": ".ASP",
    "description": "Active Server Page"
  },
  {
    "display_name": "Web Files",
    "category": ".ASPX",
    "description": "Active Server Page Extended File"
  },
  {
    "display_name": "Web Files",
    "category": ".CER",
    "description": "Internet Security Certificate"
  },
  {
    "display_name": "Web Files",
    "category": ".CFM",
    "description": "ColdFusion Markup File"
  },
  {
    "display_name": "Web Files",
    "category": ".CSR",
    "description": "Certificate Signing Request File"
  },
  {
    "display_name": "Web Files",
    "category": ".CSS",
    "description": "Cascading Style Sheet"
  },
  {
    "display_name": "Web Files",
    "category": ".HTM",
    "description": "Hypertext Markup Language File"
  },
  {
    "display_name": "Web Files",
    "category": ".HTML",
    "description": "Hypertext Markup Language File"
  },
  {
    "display_name": "Web Files",
    "category": ".JS",
    "description": "JavaScript File"
  },
  {
    "display_name": "Web Files",
    "category": ".JSP",
    "description": "Java Server Page"
  },
  {
    "display_name": "Web Files",
    "category": ".PHP",
    "description": "PHP Source Code File"
  },
  {
    "display_name": "Web Files",
    "category": ".RSS",
    "description": "Rich Site Summary"
  },
  {
    "display_name": "Web Files",
    "category": ".XHTML",
    "description": "Extensible Hypertext Markup Language File"
  },
  {
    "display_name": "Plugin Files",
    "category": ".CRX",
    "description": "Chrome category"
  },
  {
    "display_name": "Plugin Files",
    "category": ".PLUGIN",
    "description": "Mac OS X Plugin"
  },
  {
    "display_name": "Font Files",
    "category": ".FNT",
    "description": "Windows Font File"
  },
  {
    "display_name": "Font Files",
    "category": ".FON",
    "description": "Generic Font File"
  },
  {
    "display_name": "Font Files",
    "category": ".OTF",
    "description": "OpenType Font"
  },
  {
    "display_name": "Font Files",
    "category": ".TTF",
    "description": "TrueType Font"
  },
  {
    "display_name": "System Files",
    "category": ".CAB",
    "description": "Windows Cabinet File"
  },
  {
    "display_name": "System Files",
    "category": ".CPL",
    "description": "Windows Control Panel Item"
  },
  {
    "display_name": "System Files",
    "category": ".CUR",
    "description": "Windows Cursor"
  },
  {
    "display_name": "System Files",
    "category": ".DESKTHEMEPACK",
    "description": "Windows 8 Desktop Theme Pack File"
  },
  {
    "display_name": "System Files",
    "category": ".DLL",
    "description": "Dynamic Link Library"
  },
  {
    "display_name": "System Files",
    "category": ".DMP",
    "description": "Windows Memory Dump"
  },
  {
    "display_name": "System Files",
    "category": ".DRV",
    "description": "Device Driver"
  },
  {
    "display_name": "System Files",
    "category": ".ICNS",
    "description": "Mac OS X Icon Resource File"
  },
  {
    "display_name": "System Files",
    "category": ".ICO",
    "description": "Icon File"
  },
  {
    "display_name": "System Files",
    "category": ".LNK",
    "description": "Windows File Shortcut"
  },
  {
    "display_name": "System Files",
    "category": ".SYS",
    "description": "Windows System File"
  },
  {
    "display_name": "Settings Files",
    "category": ".CFG",
    "description": "Configuration File"
  },
  {
    "display_name": "Settings Files",
    "category": ".INI",
    "description": "Windows Initialization File"
  },
  {
    "display_name": "Settings Files",
    "category": ".PRF",
    "description": "Outlook Profile File"
  },
  {
    "display_name": "Encoded Files",
    "category": ".HQX",
    "description": "BinHex 4.0 Encoded File"
  },
  {
    "display_name": "Encoded Files",
    "category": ".MIM",
    "description": "Multi-Purpose Internet Mail Message File"
  },
  {
    "display_name": "Encoded Files",
    "category": ".UUE",
    "description": "Uuencoded File"
  },
  {
    "display_name": "Compressed Files",
    "category": ".7Z",
    "description": "7-Zip Compressed File"
  },
  {
    "display_name": "Compressed Files",
    "category": ".CBR",
    "description": "Comic Book RAR Archive"
  },
  {
    "display_name": "Compressed Files",
    "category": ".DEB",
    "description": "Debian Software Package"
  },
  {
    "display_name": "Compressed Files",
    "category": ".GZ",
    "description": "Gnu Zipped Archive"
  },
  {
    "display_name": "Compressed Files",
    "category": ".PKG",
    "description": "Mac OS X Installer Package"
  },
  {
    "display_name": "Compressed Files",
    "category": ".RAR",
    "description": "WinRAR Compressed Archive"
  },
  {
    "display_name": "Compressed Files",
    "category": ".RPM",
    "description": "Red Hat Package Manager File"
  },
  {
    "display_name": "Compressed Files",
    "category": ".SITX",
    "description": "StuffIt X Archive"
  },
  {
    "display_name": "Compressed Files",
    "category": ".TAR.GZ",
    "description": "Compressed Tarball File"
  },
  {
    "display_name": "Compressed Files",
    "category": ".ZIP",
    "description": "Zipped File"
  },
  {
    "display_name": "Compressed Files",
    "category": ".ZIPX",
    "description": "Extended Zip File"
  },
  {
    "display_name": "Disk Image Files",
    "category": ".BIN",
    "description": "Binary Disc Image"
  },
  {
    "display_name": "Disk Image Files",
    "category": ".CUE",
    "description": "Cue Sheet File"
  },
  {
    "display_name": "Disk Image Files",
    "category": ".DMG",
    "description": "Mac OS X Disk Image"
  },
  {
    "display_name": "Disk Image Files",
    "category": ".ISO",
    "description": "Disc Image File"
  },
  {
    "display_name": "Disk Image Files",
    "category": ".MDF",
    "description": "Media Disc Image File"
  },
  {
    "display_name": "Disk Image Files",
    "category": ".TOAST",
    "description": "Toast Disc Image"
  },
  {
    "display_name": "Disk Image Files",
    "category": ".VCD",
    "description": "Virtual CD"
  },
  {
    "display_name": "Developer Files",
    "category": ".C",
    "description": "C/C++ Source Code File"
  },
  {
    "display_name": "Developer Files",
    "category": ".CLASS",
    "description": "Java Class File"
  },
  {
    "display_name": "Developer Files",
    "category": ".CPP",
    "description": "C++ Source Code File"
  },
  {
    "display_name": "Developer Files",
    "category": ".CS",
    "description": "Visual C# Source Code File"
  },
  {
    "display_name": "Developer Files",
    "category": ".DTD",
    "description": "Document Type Definition File"
  },
  {
    "display_name": "Developer Files",
    "category": ".FLA",
    "description": "Adobe Flash Animation"
  },
  {
    "display_name": "Developer Files",
    "category": ".H",
    "description": "C/C++/Objective-C Header File"
  },
  {
    "display_name": "Developer Files",
    "category": ".JAVA",
    "description": "Java Source Code File"
  },
  {
    "display_name": "Developer Files",
    "category": ".LUA",
    "description": "Lua Source File"
  },
  {
    "display_name": "Developer Files",
    "category": ".M",
    "description": "Objective-C Implementation File"
  },
  {
    "display_name": "Developer Files",
    "category": ".PL",
    "description": "Perl Script"
  },
  {
    "display_name": "Developer Files",
    "category": ".PY",
    "description": "Python Script"
  },
  {
    "display_name": "Developer Files",
    "category": ".SH",
    "description": "Bash Shell Script"
  },
  {
    "display_name": "Developer Files",
    "category": ".SLN",
    "description": "Visual Studio Solution File"
  },
  {
    "display_name": "Developer Files",
    "category": ".SWIFT",
    "description": "Swift Source Code File"
  },
  {
    "display_name": "Developer Files",
    "category": ".VB",
    "description": "Visual Basic Project Item File"
  },
  {
    "display_name": "Developer Files",
    "category": ".VCXPROJ",
    "description": "Visual C++ Project"
  },
  {
    "display_name": "Developer Files",
    "category": ".XCODEPROJ",
    "description": "Xcode Project"
  },
  {
    "display_name": "Backup Files",
    "category": ".BAK",
    "description": "Backup File"
  },
  {
    "display_name": "Backup Files",
    "category": ".TMP",
    "description": "Temporary File"
  },
  {
    "display_name": "Misc Files",
    "category": ".CRDOWNLOAD",
    "description": "Chrome Partially Downloaded File"
  },
  {
    "display_name": "Misc Files",
    "category": ".ICS",
    "description": "Calendar File"
  },
  {
    "display_name": "Misc Files",
    "category": ".MSI",
    "description": "Windows Installer Package"
  },
  {
    "display_name": "Misc Files",
    "category": ".PART",
    "description": "Partially Downloaded File"
  },
  {
    "display_name": "Misc Files",
    "category": ".TORRENT",
    "description": "BitTorrent File"
  }
]